module gitlab.com/BIC_Dev/discord-twitter-service

go 1.14

require (
	github.com/ChimeraCoder/anaconda v2.0.0+incompatible
	github.com/ChimeraCoder/tokenbucket v0.0.0-20131201223612-c5a927568de7 // indirect
	github.com/azr/backoff v0.0.0-20160115115103-53511d3c7330 // indirect
	github.com/dustin/go-jsonpointer v0.0.0-20160814072949-ba0abeacc3dc // indirect
	github.com/dustin/gojson v0.0.0-20160307161227-2e71ec9dd5ad // indirect
	github.com/garyburd/go-oauth v0.0.0-20180319155456-bca2e7f09a17 // indirect
	github.com/go-playground/universal-translator v0.17.0 // indirect
	github.com/go-playground/validator v9.31.0+incompatible
	github.com/gorilla/mux v1.7.4
	github.com/jinzhu/gorm v1.9.12
	github.com/leodido/go-urn v1.2.0 // indirect
	gopkg.in/yaml.v2 v2.3.0
)
